<svg width="15" height="15" viewBox="0 0 15 15" fill="none" xmlns="http://www.w3.org/2000/svg">
<path d="M7.39978 13.8L13.7998 7.4L7.39978 1" stroke="#132847" stroke-linecap="round" stroke-linejoin="round"/>
<path d="M1 7.3999L13.8 7.3999" stroke="#132847" stroke-linecap="round" stroke-linejoin="round"/>
</svg>
