<svg width="64" height="64" viewBox="0 0 64 64" fill="none" xmlns="http://www.w3.org/2000/svg">
<path d="M0 0H64V64L32 32L0 0Z" fill="#EB5757"/>
<path d="M46.0262 18.655L41.124 23.5572" stroke="white" stroke-width="3" stroke-linecap="round" stroke-linejoin="round"/>
<path d="M43.5745 29.2765C48.0868 29.2765 51.7447 25.6185 51.7447 21.1062C51.7447 16.594 48.0868 12.936 43.5745 12.936C39.0622 12.936 35.4043 16.594 35.4043 21.1062C35.4043 25.6185 39.0622 29.2765 43.5745 29.2765Z" stroke="white" stroke-width="3" stroke-linecap="round" stroke-linejoin="round"/>
<path d="M41.124 18.655L46.0262 23.5572" stroke="white" stroke-width="3" stroke-linecap="round" stroke-linejoin="round"/>
</svg>
