<svg width="45" height="45" viewBox="0 0 45 45" fill="none" xmlns="http://www.w3.org/2000/svg">
<circle cx="22.5" cy="22.5" r="21.75" stroke="#E0E0E0" stroke-width="1.5"/>
<path d="M30.0001 16C31.1047 16 32.0001 15.1046 32.0001 14C32.0001 12.8954 31.1047 12 30.0001 12C28.8955 12 28.0001 12.8954 28.0001 14C28.0001 15.1046 28.8955 16 30.0001 16Z" fill="#409A3C"/>
<path d="M29.836 22.014L25.491 22.739L28.781 18.626C28.8676 18.5177 28.9307 18.3926 28.9664 18.2586C29.002 18.1246 29.0094 17.9846 28.9881 17.8476C28.9667 17.7106 28.9171 17.5795 28.8424 17.4627C28.7676 17.3459 28.6694 17.2459 28.554 17.169L22.554 13.169C22.3617 13.0406 22.1308 12.9828 21.9006 13.0056C21.6705 13.0284 21.4554 13.1303 21.292 13.294L17.292 17.294L18.706 18.708L22.126 15.288L24.71 17.011L22.029 20.363C21.1207 20.0287 20.1442 19.9224 19.1853 20.0535C18.2263 20.1846 17.3142 20.5491 16.529 21.115L17.98 22.566C18.5904 22.1997 19.2881 22.0043 20 22C22.206 22 24 23.794 24 26C24 26.739 23.784 27.425 23.434 28.02L24.885 29.471C25.61 28.4589 25.9999 27.2451 26 26C26 25.555 25.947 25.122 25.855 24.705L29 24.181V30H31V23C31.0003 22.8548 30.9688 22.7112 30.9079 22.5793C30.8469 22.4475 30.7579 22.3305 30.6471 22.2366C30.5362 22.1427 30.4062 22.0742 30.2661 22.0357C30.126 21.9973 29.9792 21.9899 29.836 22.014ZM20 30C17.794 30 16 28.206 16 26C16 25.261 16.216 24.575 16.566 23.98L15.115 22.529C14.39 23.5412 14.0001 24.755 14 26C14 29.309 16.691 32 20 32C21.294 32 22.49 31.584 23.471 30.885L22.02 29.434C21.4096 29.8003 20.7119 29.9958 20 30Z" fill="#409A3C"/>
</svg>
