<svg width="45" height="45" viewBox="0 0 45 45" fill="none" xmlns="http://www.w3.org/2000/svg">
<circle cx="22.5" cy="22.5" r="21.75" stroke="#E0E0E0" stroke-width="1.5"/>
<path d="M18 12L22 16.14H19V20.28H17V16.14H14L18 12ZM28 20.28L24 16.14H27V12H29V16.14H32L28 20.28ZM18 22.35H28C28.5304 22.35 29.0391 22.5681 29.4142 22.9563C29.7893 23.3445 30 23.871 30 24.42V30.63C30 31.179 29.7893 31.7055 29.4142 32.0937C29.0391 32.4819 28.5304 32.7 28 32.7H18C17.4696 32.7 16.9609 32.4819 16.5858 32.0937C16.2107 31.7055 16 31.179 16 30.63V24.42C16 23.871 16.2107 23.3445 16.5858 22.9563C16.9609 22.5681 17.4696 22.35 18 22.35ZM18 24.42V30.63H28V24.42H18Z" fill="#409A3C"/>
</svg>
