<svg width="45" height="45" viewBox="0 0 45 45" fill="none" xmlns="http://www.w3.org/2000/svg">
<circle cx="22.5" cy="22.5" r="21.75" stroke="#E0E0E0" stroke-width="1.5"/>
<path d="M30.55 26.7329H30.1C29.3676 26.7329 28.8119 26.4976 28.5225 26.2326C28.2722 26.0031 27.9695 25.8385 27.6289 25.8385H27.1705C26.8299 25.8385 26.5273 26.0031 26.277 26.2326C25.9881 26.4976 25.4324 26.7329 24.7 26.7329C23.9676 26.7329 23.4119 26.4976 23.1225 26.2326C22.8722 26.0031 22.5695 25.8385 22.2289 25.8385H21.7705C21.4299 25.8385 21.1273 26.0031 20.877 26.2326C20.5881 26.4976 20.0324 26.7329 19.3 26.7329C18.5676 26.7329 18.0119 26.4976 17.7225 26.2326C17.4722 26.0031 17.1695 25.8385 16.8289 25.8385H16.3705C16.0299 25.8385 15.7273 26.0031 15.477 26.2326C15.1881 26.4976 14.6324 26.7329 13.9 26.7329H13.45C13.2014 26.7329 13 26.933 13 27.1801V28.0745C13 28.3216 13.2014 28.5217 13.45 28.5217H13.9C14.9862 28.5217 15.9452 28.181 16.6 27.6318C17.2547 28.1813 18.2138 28.5217 19.3 28.5217C20.3862 28.5217 21.3453 28.181 22 27.6318C22.6547 28.1813 23.6138 28.5217 24.7 28.5217C25.7862 28.5217 26.7452 28.181 27.4 27.6318C28.0547 28.1813 29.0138 28.5217 30.1 28.5217H30.55C30.7986 28.5217 31 28.3216 31 28.0745V27.1801C31 26.933 30.7986 26.7329 30.55 26.7329ZM19.3 25.8385V23.1553H24.7V25.8385C25.2377 25.8385 25.5679 25.6663 25.6672 25.5752C25.9251 25.3388 26.2072 25.1744 26.5 25.0702V18.6832C26.5 18.1902 26.9039 17.7888 27.4 17.7888C27.8961 17.7888 28.3 18.1902 28.3 18.6832V19.1304C28.3 19.3775 28.5014 19.5776 28.75 19.5776H29.65C29.8986 19.5776 30.1 19.3775 30.1 19.1304V18.6832C30.1 17.2035 28.8889 16 27.4 16C25.9111 16 24.7 17.2035 24.7 18.6832V21.3665H19.3V18.6832C19.3 18.1902 19.7039 17.7888 20.2 17.7888C20.6961 17.7888 21.1 18.1902 21.1 18.6832V19.1304C21.1 19.3775 21.3014 19.5776 21.55 19.5776H22.45C22.6986 19.5776 22.9 19.3775 22.9 19.1304V18.6832C22.9 17.2035 21.6889 16 20.2 16C18.7111 16 17.5 17.2035 17.5 18.6832V25.0699C17.7928 25.1741 18.0749 25.3388 18.3328 25.5749C18.4321 25.6663 18.7622 25.8385 19.3 25.8385Z" fill="#409A3C"/>
</svg>
