<svg width="16" height="18" viewBox="0 0 16 18" fill="none" xmlns="http://www.w3.org/2000/svg">
<path d="M14 1.75H13.125V0.875C13.125 0.39375 12.7312 0 12.25 0C11.7688 0 11.375 0.39375 11.375 0.875V1.75H4.375V0.875C4.375 0.39375 3.98125 0 3.5 0C3.01875 0 2.625 0.39375 2.625 0.875V1.75H1.75C0.77875 1.75 0.00874999 2.5375 0.00874999 3.5L0 15.75C0 16.2141 0.184374 16.6592 0.512563 16.9874C0.840752 17.3156 1.28587 17.5 1.75 17.5H14C14.9625 17.5 15.75 16.7125 15.75 15.75V3.5C15.75 2.5375 14.9625 1.75 14 1.75ZM14 14.875C14 15.3562 13.6062 15.75 13.125 15.75H2.625C2.14375 15.75 1.75 15.3562 1.75 14.875V6.125H14V14.875ZM3.5 7.875H5.25V9.625H3.5V7.875ZM7 7.875H8.75V9.625H7V7.875ZM10.5 7.875H12.25V9.625H10.5V7.875Z" fill="#409A3C"/>
</svg>
