<svg width="200" height="35" viewBox="0 0 200 35" fill="none" xmlns="http://www.w3.org/2000/svg">
<path d="M54.0559 8.52066C55.1025 9.71258 55.6255 11.3514 55.6252 13.4372V22.4889H50.8761V13.9966C50.9287 13.1056 50.6348 12.2288 50.0565 11.5517C49.7763 11.2574 49.4368 11.0267 49.0609 10.8749C48.6849 10.7232 48.281 10.6539 47.8763 10.6717C47.451 10.6509 47.0262 10.7225 46.6308 10.8816C46.2354 11.0407 45.8788 11.2836 45.585 11.5937C44.9792 12.3278 44.6763 13.2676 44.7389 14.2196V22.4889H39.9893V6.90072H44.7383V9.75021C45.1694 8.8337 45.8602 8.0658 46.7239 7.54301C47.6607 6.98731 48.7335 6.70664 49.8207 6.73278C50.6142 6.69677 51.4058 6.83849 52.1382 7.14768C52.8706 7.45687 53.5256 7.92582 54.0559 8.52066Z" fill="#449941"/>
<path d="M67.1519 7.51469C67.9903 8.03973 68.6492 8.8098 69.0405 9.72187V6.9002H73.7619V22.489H69.0405V19.6673C68.6496 20.5798 67.9906 21.3502 67.1519 21.875C66.2316 22.4336 65.1712 22.7146 64.0968 22.6847C62.8848 22.7028 61.6935 22.3678 60.6666 21.7201C59.6245 21.0398 58.796 20.0756 58.2777 18.9399C57.7009 17.5969 57.4033 16.1495 57.4033 14.6866C57.4033 13.2237 57.7009 11.7763 58.2777 10.4334C58.7989 9.30334 59.6271 8.34447 60.6666 7.66731C61.6934 7.0193 62.8848 6.68429 64.0968 6.70274C65.1715 6.67354 66.2318 6.95535 67.1519 7.51469ZM63.1661 11.9007C62.5625 12.7055 62.2359 13.6862 62.2359 14.6943C62.2359 15.7024 62.5625 16.6831 63.1661 17.4879C63.823 18.1373 64.7088 18.4988 65.6299 18.4935C66.551 18.4882 67.4326 18.1165 68.0821 17.4595C68.7027 16.6702 69.0404 15.6933 69.0404 14.6869C69.0404 13.6806 68.7027 12.7036 68.0821 11.9143C67.7679 11.5785 67.3862 11.3137 66.9625 11.1376C66.5387 10.9615 66.0826 10.8781 65.6244 10.893C65.1667 10.8742 64.7104 10.9545 64.2863 11.1284C63.8622 11.3024 63.4802 11.5659 63.1661 11.9013V11.9007Z" fill="#449941"/>
<path d="M88.4254 8.36688C89.8043 9.52341 90.7135 11.1486 90.9807 12.9345H85.9535C85.8393 12.3212 85.5149 11.7677 85.0369 11.3701C84.5361 10.9855 83.9178 10.7881 83.2882 10.8118C82.8924 10.8045 82.5004 10.8903 82.1435 11.0625C81.7866 11.2348 81.4747 11.4885 81.2327 11.8036C80.7061 12.675 80.4275 13.6751 80.4275 14.6948C80.4275 15.7145 80.7061 16.7147 81.2327 17.586C81.4747 17.9011 81.7866 18.1549 82.1435 18.3271C82.5004 18.4993 82.8924 18.5852 83.2882 18.5778C83.918 18.6016 84.5363 18.404 85.0369 18.0189C85.5149 17.6214 85.8393 17.0678 85.9535 16.4546H90.9807C90.7141 18.2406 89.8047 19.866 88.4254 21.0222C86.9978 22.1568 85.2166 22.7459 83.3982 22.6847C81.9918 22.7112 80.6016 22.3794 79.3571 21.7201C78.1867 21.0832 77.2263 20.117 76.5931 18.9398C75.9379 17.6193 75.5957 16.1641 75.5933 14.6882C75.5908 13.2124 75.9282 11.7561 76.579 10.4333C77.21 9.25807 78.1714 8.29595 79.343 7.66727C80.5926 7.00853 81.987 6.67682 83.3976 6.7027C85.2164 6.64235 86.9976 7.23193 88.4254 8.36688Z" fill="#449941"/>
<path d="M93.2302 0.712073C93.817 0.250661 94.5404 0 95.2852 0C96.03 0 96.7534 0.250661 97.3401 0.712073C97.5924 0.937411 97.7926 1.2154 97.927 1.52666C98.0613 1.83791 98.1265 2.17492 98.118 2.51413C98.1246 2.84901 98.0585 3.18129 97.9241 3.48776C97.7897 3.79423 97.5904 4.06749 97.3401 4.2884C96.7535 4.75 96.03 5.00077 95.2852 5.00077C94.5403 5.00077 93.8169 4.75 93.2302 4.2884C92.98 4.06746 92.7808 3.7942 92.6465 3.48773C92.5123 3.18126 92.4462 2.84897 92.4529 2.51413C92.4443 2.17496 92.5094 1.83796 92.6436 1.52671C92.7779 1.21545 92.9781 0.93744 93.2302 0.712073ZM97.6459 6.90015V22.4889H92.8968V6.90015H97.6459Z" fill="#409A3C"/>
<path d="M111.74 7.66833C112.94 8.29866 113.933 9.26407 114.601 10.4486C115.285 11.7584 115.642 13.2156 115.642 14.695C115.642 16.1744 115.285 17.6316 114.601 18.9414C113.933 20.126 112.94 21.0915 111.74 21.7217C110.454 22.3557 109.041 22.6853 107.609 22.6853C106.177 22.6853 104.764 22.3557 103.478 21.7217C102.271 21.0949 101.272 20.129 100.601 18.9414C99.9172 17.6316 99.5601 16.1744 99.5601 14.695C99.5601 13.2156 99.9172 11.7584 100.601 10.4486C101.272 9.2611 102.271 8.29522 103.478 7.66833C104.764 7.0341 106.177 6.70435 107.609 6.70435C109.041 6.70435 110.454 7.0341 111.74 7.66833ZM105.325 11.8308C104.657 12.6277 104.323 13.6546 104.394 14.6944C104.321 15.7302 104.655 16.7533 105.325 17.5439C105.617 17.86 105.972 18.1104 106.366 18.2789C106.761 18.4474 107.187 18.5301 107.616 18.5216C108.043 18.5309 108.467 18.4485 108.859 18.2799C109.252 18.1113 109.604 17.8604 109.893 17.5439C110.554 16.7493 110.883 15.7279 110.81 14.6944C110.881 13.6569 110.553 12.6317 109.893 11.8308C109.607 11.5107 109.255 11.2565 108.862 11.0854C108.469 10.9142 108.044 10.8302 107.616 10.839C107.186 10.8309 106.759 10.9152 106.364 11.0863C105.969 11.2573 105.614 11.5111 105.325 11.8308Z" fill="#449941"/>
<path d="M131.542 8.52066C132.588 9.71258 133.111 11.3514 133.111 13.4372V22.4889H128.361V13.9966C128.414 13.1056 128.12 12.2288 127.542 11.5517C127.262 11.2574 126.922 11.0267 126.547 10.875C126.171 10.7232 125.767 10.6539 125.362 10.6717C124.937 10.6509 124.512 10.7225 124.116 10.8816C123.721 11.0407 123.364 11.2836 123.071 11.5937C122.465 12.3277 122.162 13.2676 122.225 14.2196V22.4889H117.474V6.90072H122.223V9.75021C122.655 8.83355 123.346 8.06561 124.21 7.54301C125.146 6.98731 126.219 6.70664 127.306 6.73278C128.1 6.69677 128.892 6.83847 129.624 7.14766C130.357 7.45685 131.012 7.92581 131.542 8.52066Z" fill="#449941"/>
<path d="M144.637 7.51461C145.476 8.03962 146.135 8.8097 146.526 9.72179V6.90011H151.249V22.4889H146.528V19.6672C146.137 20.5797 145.478 21.3501 144.64 21.8749C143.719 22.4333 142.659 22.7143 141.585 22.6846C140.373 22.7028 139.182 22.3678 138.155 21.72C137.113 21.0398 136.284 20.0756 135.766 18.9398C135.189 17.5969 134.892 16.1494 134.892 14.6865C134.892 13.2237 135.189 11.7762 135.766 10.4333C136.287 9.30316 137.115 8.34425 138.155 7.66723C139.182 7.01919 140.373 6.68418 141.585 6.70266C142.659 6.67406 143.718 6.95586 144.637 7.51461ZM140.652 11.9006C140.048 12.7053 139.721 13.686 139.721 14.6942C139.721 15.7024 140.048 16.6831 140.652 17.4878C141.309 18.1373 142.194 18.4988 143.116 18.4935C144.037 18.4882 144.918 18.1164 145.568 17.4594C146.188 16.67 146.526 15.6931 146.526 14.6868C146.526 13.6805 146.188 12.7037 145.568 11.9142C145.254 11.5784 144.872 11.3136 144.448 11.1375C144.024 10.9614 143.568 10.878 143.11 10.8929C142.652 10.8742 142.196 10.9545 141.772 11.1284C141.348 11.3024 140.966 11.5659 140.652 11.9012V11.9006Z" fill="#449941"/>
<path d="M158.163 1.81567V22.4889H153.414V1.81567H158.163Z" fill="#449941"/>
<path d="M161.746 1.01728C162.247 0.628406 162.862 0.41748 163.495 0.41748C164.128 0.41748 164.742 0.628406 165.243 1.01728C165.461 1.21054 165.634 1.44971 165.749 1.71775C165.864 1.98579 165.919 2.2761 165.91 2.56798C165.917 2.85545 165.861 3.14093 165.746 3.40407C165.631 3.66722 165.459 3.90154 165.243 4.09031C164.743 4.47937 164.128 4.69042 163.495 4.69042C162.862 4.69042 162.247 4.47937 161.746 4.09031C161.53 3.90156 161.359 3.66726 161.244 3.40411C161.128 3.14096 161.072 2.85545 161.079 2.56798C161.07 2.2761 161.125 1.98579 161.241 1.71775C161.356 1.44971 161.528 1.21054 161.746 1.01728ZM165.44 7.0096V22.4866H161.524V7.01187L165.44 7.0096Z" fill="#7BAA39"/>
<path d="M180.742 8.54849C181.798 9.72112 182.326 11.3692 182.325 13.4928V22.4907H178.438V13.9405C178.502 12.8992 178.163 11.8731 177.493 11.0768C177.16 10.7313 176.757 10.4615 176.312 10.2853C175.866 10.1092 175.388 10.0309 174.91 10.0555C174.414 10.0335 173.919 10.1195 173.459 10.3075C172.999 10.4955 172.585 10.7811 172.244 11.1449C171.526 12.0211 171.168 13.1404 171.244 14.2736V22.4907H167.328V7.0114H171.244V10.1128C171.629 9.09693 172.337 8.23756 173.258 7.66846C174.231 7.07092 175.354 6.76559 176.494 6.78842C177.287 6.75278 178.078 6.89182 178.812 7.19584C179.545 7.49987 180.204 7.96152 180.742 8.54849Z" fill="#8AC537"/>
<path d="M197.517 8.54853C198.573 9.72116 199.1 11.3693 199.1 13.4929V22.4907H195.212V13.9405C195.276 12.8992 194.938 11.8731 194.267 11.0769C193.934 10.7313 193.531 10.4614 193.086 10.2853C192.64 10.1091 192.163 10.0308 191.684 10.0555C191.188 10.0337 190.693 10.1196 190.233 10.3076C189.773 10.4957 189.359 10.7812 189.019 11.1449C188.301 12.0213 187.943 13.1406 188.018 14.2736V22.4907H184.102V7.01143H188.018V10.1128C188.403 9.09701 189.11 8.23763 190.031 7.6685C191.004 7.07102 192.127 6.76569 193.267 6.78846C194.06 6.75269 194.852 6.89168 195.586 7.19571C196.32 7.49973 196.979 7.96144 197.517 8.54853Z" fill="#7BAA39"/>
<path d="M44.1308 28.3599V32.81H43.2412V30.8746H41.3487V32.81H40.4653V28.3599H41.3487V30.1631H43.2412V28.3599H44.1308Z" fill="#676568"/>
<path d="M49.8703 28.5862C50.2044 28.7778 50.4797 29.0581 50.6662 29.3964C50.8573 29.759 50.9572 30.1631 50.9572 30.5735C50.9572 30.9839 50.8573 31.388 50.6662 31.7506C50.4806 32.0903 50.2051 32.3717 49.8703 32.5636C49.5255 32.7538 49.1387 32.8535 48.7455 32.8535C48.3523 32.8535 47.9655 32.7538 47.6207 32.5636C47.2857 32.3719 47.0102 32.0904 46.8248 31.7506C46.6336 31.388 46.5337 30.9839 46.5337 30.5735C46.5337 30.1631 46.6336 29.759 46.8248 29.3964C47.0111 29.0579 47.2864 28.7776 47.6207 28.5862C47.9655 28.3962 48.3523 28.2966 48.7455 28.2966C49.1386 28.2966 49.5255 28.3962 49.8703 28.5862ZM48.0652 29.292C47.8663 29.4131 47.7064 29.5894 47.6049 29.7998C47.4956 30.0423 47.439 30.3055 47.439 30.5718C47.439 30.8381 47.4956 31.1012 47.6049 31.3437C47.7059 31.5543 47.8659 31.7306 48.0652 31.851C48.2745 31.9668 48.5094 32.0276 48.7483 32.0276C48.9872 32.0276 49.2221 31.9668 49.4314 31.851C49.6307 31.7306 49.7907 31.5543 49.8917 31.3437C50.0011 31.1012 50.0577 30.8381 50.0577 30.5718C50.0577 30.3055 50.0011 30.0423 49.8917 29.7998C49.7902 29.5894 49.6303 29.4131 49.4314 29.292C49.2221 29.1764 48.9871 29.1158 48.7483 29.1158C48.5095 29.1158 48.2745 29.1764 48.0652 29.292Z" fill="#676568"/>
<path d="M56.1862 28.3599V29.0657H54.9644V32.8106H54.0811V29.0657H52.8655V28.3599H56.1862Z" fill="#676568"/>
<path d="M59.2626 29.0657V30.2187H60.829V30.8996H59.2626V32.0962H61.0163V32.8089H58.3787V28.3587H61.0163V29.0646L59.2626 29.0657ZM60.6474 27.414L59.2062 28.0949V27.4895L60.6474 26.7332V27.414Z" fill="#676568"/>
<path d="M64.3511 28.3599V32.81H63.4678V28.3599H64.3511Z" fill="#676568"/>
<path d="M69.8025 32.2198C69.6823 32.418 69.5083 32.5777 69.301 32.68C69.0494 32.8025 68.7721 32.8621 68.4927 32.8536C68.2047 32.8586 67.9188 32.804 67.6528 32.693C67.4176 32.5949 67.213 32.435 67.0605 32.23C66.9108 32.0238 66.8227 31.779 66.8066 31.5242H67.7464C67.7628 31.6954 67.8394 31.8551 67.9624 31.9747C68.0285 32.036 68.1059 32.0835 68.1904 32.1144C68.2748 32.1453 68.3646 32.1589 68.4543 32.1546C68.5311 32.1597 68.6081 32.1493 68.6807 32.124C68.7534 32.0986 68.8203 32.0589 68.8774 32.007C68.9264 31.9568 68.9648 31.897 68.9901 31.8313C69.0154 31.7657 69.0271 31.6955 69.0246 31.6252C69.0286 31.5007 68.9861 31.3793 68.9056 31.2847C68.8219 31.1912 68.7192 31.1169 68.6044 31.0668C68.4831 31.0101 68.3161 30.9494 68.1035 30.8779C67.8714 30.8034 67.6452 30.7118 67.4266 30.6038C67.2479 30.5108 67.0943 30.3757 66.9787 30.2101C66.8476 30.0108 66.7828 29.7747 66.7937 29.536C66.7864 29.3633 66.8199 29.1913 66.8912 29.034C66.9626 28.8768 67.0699 28.7387 67.2043 28.631C67.5178 28.3977 67.9019 28.2808 68.2913 28.3002C68.692 28.2792 69.0875 28.3996 69.4093 28.6406C69.546 28.7512 69.6585 28.8888 69.7399 29.045C69.8214 29.2012 69.8699 29.3726 69.8826 29.5485H68.9304C68.9103 29.3971 68.8397 29.2571 68.7302 29.1513C68.6074 29.0435 68.4478 28.9882 68.2851 28.997C68.1422 28.9901 68.0017 29.0361 67.8902 29.1263C67.8 29.2183 67.7466 29.3405 67.7402 29.4695C67.7339 29.5986 67.775 29.7255 67.8558 29.8259C67.9385 29.9159 68.0388 29.9877 68.1503 30.037C68.3088 30.1065 68.4709 30.1673 68.636 30.2191C68.8718 30.3004 69.1029 30.3951 69.3281 30.5028C69.5102 30.595 69.6665 30.7315 69.7827 30.9C69.9163 31.1053 69.982 31.3478 69.9706 31.5928C69.9728 31.8134 69.9147 32.0303 69.8025 32.2198Z" fill="#676568"/>
<path d="M76.1055 29.0656V30.2186H77.6708V30.8995H76.1044V32.0961H77.8581V32.8088H75.2205V28.3586H77.8581V29.0645L76.1055 29.0656Z" fill="#676568"/>
<path d="M86.4813 28.745C86.8489 29.0374 87.1039 29.4495 87.2022 29.9104H86.2748C86.1859 29.68 86.0295 29.4822 85.8264 29.343C85.6099 29.2003 85.3551 29.1278 85.0964 29.1354C84.8712 29.1312 84.6497 29.1935 84.4592 29.3145C84.2688 29.4355 84.1177 29.6099 84.0247 29.8163C83.9155 30.0576 83.8619 30.3206 83.8678 30.5857C83.8622 30.8485 83.9158 31.1092 84.0247 31.3482C84.1178 31.5545 84.2689 31.7289 84.4594 31.8498C84.6498 31.9708 84.8712 32.0331 85.0964 32.0291C85.3551 32.0365 85.6099 31.964 85.8264 31.8215C86.0295 31.6824 86.1859 31.4845 86.2748 31.2541H87.2022C87.1039 31.715 86.849 32.1271 86.4813 32.4195C86.1197 32.6723 85.6956 32.8194 85.256 32.8444C84.8164 32.8695 84.3784 32.7715 83.9908 32.5613C83.6685 32.3719 83.4074 32.093 83.2389 31.7579C83.0635 31.3912 82.9724 30.9895 82.9724 30.5825C82.9724 30.1756 83.0635 29.7739 83.2389 29.4072C83.4067 29.0728 83.6666 28.7939 83.9874 28.6037C84.3756 28.3935 84.8141 28.2954 85.2543 28.3205C85.6944 28.3455 86.1191 28.4926 86.4813 28.7456V28.745Z" fill="#676568"/>
<path d="M90.4726 29.0656V30.2186H92.039V30.8995H90.4726V32.0961H92.2263V32.8088H89.5886V28.3586H92.2263V29.0645L90.4726 29.0656Z" fill="#676568"/>
<path d="M98.4193 32.81H97.5359L95.556 29.7846V32.81H94.6726V28.3599H95.556L97.5359 31.4108V28.3599H98.4193V32.81Z" fill="#676568"/>
<path d="M103.937 28.3599V29.0657H102.715V32.8106H101.832V29.0657H100.616V28.3599H103.937Z" fill="#676568"/>
<path d="M108.439 32.81L107.405 31.0766H107.017V32.81H106.134V28.3599H107.82C108.245 28.3297 108.666 28.4652 108.994 28.7383C109.23 28.9796 109.372 29.2977 109.395 29.6351C109.418 29.9725 109.32 30.307 109.119 30.5784C108.911 30.8184 108.627 30.9787 108.315 31.0323L109.417 32.81H108.439ZM107.017 30.4643H107.744C108.249 30.4643 108.501 30.2396 108.502 29.7903C108.507 29.6983 108.494 29.6063 108.462 29.5199C108.43 29.4336 108.38 29.3548 108.317 29.2887C108.156 29.1564 107.951 29.0921 107.744 29.1094H107.017V30.4643Z" fill="#676568"/>
<path d="M114.886 28.5862C115.221 28.7775 115.496 29.0579 115.682 29.3964C115.874 29.7589 115.974 30.1631 115.974 30.5735C115.974 30.9839 115.874 31.388 115.682 31.7506C115.497 32.0905 115.221 32.372 114.886 32.5636C114.542 32.7538 114.155 32.8535 113.762 32.8535C113.368 32.8535 112.982 32.7538 112.637 32.5636C112.302 32.3717 112.027 32.0903 111.841 31.7506C111.65 31.3881 111.55 30.9839 111.55 30.5735C111.55 30.1631 111.65 29.7589 111.841 29.3964C112.027 29.058 112.303 28.7777 112.637 28.5862C112.982 28.3962 113.368 28.2966 113.762 28.2966C114.155 28.2966 114.542 28.3962 114.886 28.5862ZM113.081 29.292C112.882 29.4131 112.722 29.5894 112.62 29.7998C112.511 30.0424 112.455 30.3056 112.455 30.5718C112.455 30.838 112.511 31.1012 112.62 31.3437C112.722 31.5543 112.882 31.7306 113.081 31.851C113.291 31.9668 113.526 32.0276 113.764 32.0276C114.003 32.0276 114.238 31.9668 114.448 31.851C114.647 31.7307 114.807 31.5544 114.908 31.3437C115.017 31.1013 115.074 30.8381 115.074 30.5718C115.074 30.3055 115.017 30.0423 114.908 29.7998C114.807 29.5893 114.647 29.4129 114.448 29.292C114.238 29.1764 114.003 29.1158 113.764 29.1158C113.526 29.1158 113.291 29.1764 113.081 29.292Z" fill="#676568"/>
<path d="M121.175 32.2198C121.056 32.4181 120.882 32.5777 120.675 32.68C120.423 32.8025 120.145 32.862 119.866 32.8536C119.578 32.8585 119.292 32.8039 119.026 32.693C118.791 32.595 118.587 32.435 118.434 32.23C118.284 32.0239 118.196 31.779 118.18 31.5242H119.12C119.136 31.6956 119.213 31.8554 119.337 31.9747C119.403 32.0359 119.48 32.0834 119.564 32.1143C119.649 32.1451 119.738 32.1588 119.828 32.1546C119.905 32.1597 119.982 32.1493 120.054 32.124C120.127 32.0986 120.194 32.0589 120.251 32.007C120.3 31.9568 120.338 31.897 120.364 31.8313C120.389 31.7657 120.401 31.6955 120.398 31.6252C120.402 31.5007 120.36 31.3793 120.279 31.2847C120.195 31.1915 120.092 31.1173 119.978 31.0669C119.857 31.0101 119.69 30.9494 119.477 30.8779C119.245 30.8034 119.019 30.7118 118.8 30.6039C118.622 30.5106 118.468 30.3756 118.352 30.2101C118.221 30.0108 118.156 29.7747 118.168 29.536C118.16 29.3633 118.194 29.1914 118.265 29.0341C118.336 28.8769 118.444 28.7387 118.578 28.631C118.892 28.398 119.276 28.2811 119.665 28.3002C120.066 28.2792 120.462 28.3996 120.784 28.6407C120.921 28.7512 121.033 28.8888 121.115 29.045C121.196 29.2012 121.245 29.3726 121.257 29.5485H120.305C120.285 29.3969 120.214 29.2568 120.104 29.1513C119.982 29.0435 119.822 28.9882 119.659 28.997C119.516 28.9901 119.376 29.0361 119.264 29.1263C119.174 29.2183 119.121 29.3405 119.114 29.4695C119.108 29.5986 119.149 29.7255 119.23 29.8259C119.313 29.9159 119.413 29.9878 119.524 30.037C119.683 30.1066 119.845 30.1674 120.01 30.2191C120.246 30.3004 120.477 30.3951 120.702 30.5028C120.884 30.5951 121.041 30.7316 121.157 30.9C121.29 31.1053 121.356 31.3478 121.345 31.5928C121.347 31.8135 121.288 32.0304 121.175 32.2198Z" fill="#676568"/>
<path d="M130.211 31.7443C130.028 32.0799 129.75 32.3532 129.412 32.5296C129.027 32.725 128.6 32.8212 128.168 32.8099H126.596V28.3598H128.17C128.6 28.3486 129.027 28.4428 129.413 28.6344C129.751 28.8064 130.029 29.0764 130.212 29.4095C130.393 29.7716 130.488 30.1714 130.488 30.5769C130.488 30.9824 130.393 31.3822 130.212 31.7443H130.211ZM129.199 31.6376C129.452 31.3424 129.591 30.9655 129.591 30.5758C129.591 30.186 129.452 29.8092 129.199 29.5139C128.894 29.2457 128.497 29.1097 128.093 29.1354H127.48V32.0155H128.093C128.496 32.0411 128.894 31.9053 129.198 31.6376H129.199Z" fill="#676568"/>
<path d="M133.773 29.0656V30.2186H135.34V30.8995H133.773V32.0961H135.527V32.8088H132.889V28.3586H135.527V29.0645L133.773 29.0656Z" fill="#676568"/>
<path d="M144.149 28.7452C144.517 29.0375 144.771 29.4496 144.869 29.9106H143.943C143.854 29.6802 143.698 29.4824 143.495 29.3432C143.278 29.2006 143.024 29.1282 142.765 29.1355C142.54 29.1314 142.318 29.1936 142.128 29.3146C141.937 29.4356 141.786 29.61 141.693 29.8164C141.584 30.0578 141.531 30.3207 141.536 30.5858C141.531 30.8486 141.584 31.1093 141.693 31.3484C141.786 31.5546 141.937 31.729 142.128 31.85C142.318 31.971 142.54 32.0333 142.765 32.0293C143.024 32.0365 143.278 31.964 143.495 31.8216C143.698 31.6825 143.854 31.4846 143.943 31.2542H144.87C144.772 31.7152 144.517 32.1273 144.15 32.4196C143.788 32.6725 143.364 32.8196 142.924 32.8446C142.484 32.8697 142.046 32.7717 141.659 32.5615C141.336 32.372 141.075 32.093 140.907 31.758C140.732 31.3912 140.641 30.9895 140.641 30.5827C140.641 30.1758 140.732 29.7742 140.907 29.4073C141.075 29.0729 141.334 28.794 141.655 28.6039C142.044 28.3937 142.482 28.2957 142.922 28.3207C143.362 28.3458 143.787 28.4928 144.149 28.7457V28.7452Z" fill="#676568"/>
<path d="M150.395 28.5863C150.729 28.7776 151.005 29.058 151.191 29.3965C151.382 29.7591 151.482 30.1632 151.482 30.5736C151.482 30.984 151.382 31.3881 151.191 31.7506C151.005 32.0906 150.73 32.3721 150.395 32.5637C150.05 32.7538 149.663 32.8534 149.27 32.8534C148.877 32.8534 148.49 32.7538 148.146 32.5637C147.811 32.3718 147.535 32.0904 147.35 31.7506C147.158 31.3881 147.059 30.9839 147.059 30.5736C147.059 30.1632 147.158 29.7591 147.35 29.3965C147.536 29.0582 147.811 28.7779 148.146 28.5863C148.49 28.3964 148.877 28.2969 149.27 28.2969C149.663 28.2969 150.05 28.3964 150.395 28.5863ZM148.589 29.2921C148.39 29.4132 148.23 29.5895 148.129 29.7999C148.02 30.0425 147.963 30.3057 147.963 30.5719C147.963 30.8381 148.02 31.1013 148.129 31.3438C148.23 31.5543 148.39 31.7306 148.589 31.8511C148.799 31.967 149.034 32.0277 149.273 32.0277C149.511 32.0277 149.746 31.967 149.956 31.8511C150.155 31.7308 150.315 31.5545 150.416 31.3438C150.526 31.1014 150.582 30.8382 150.582 30.5719C150.582 30.3056 150.526 30.0424 150.416 29.7999C150.315 29.5894 150.155 29.413 149.956 29.2921C149.746 29.1765 149.511 29.1159 149.273 29.1159C149.034 29.1159 148.799 29.1765 148.589 29.2921Z" fill="#676568"/>
<path d="M157.629 32.81H156.744L154.764 29.7846V32.81H153.88V28.3599H154.764L156.744 31.4108V28.3599H157.628L157.629 32.81Z" fill="#676568"/>
<path d="M160.764 28.3599L161.948 31.884L163.139 28.3599H164.085L162.519 32.81H161.385L159.818 28.3599H160.764Z" fill="#676568"/>
<path d="M167.157 29.0656V30.2186H168.724V30.8995H167.157V32.0961H168.913V32.8088H166.275V28.3586H168.913V29.0645L167.157 29.0656Z" fill="#676568"/>
<path d="M175.105 32.81H174.221L172.241 29.7846V32.81H171.36V28.3599H172.243L174.224 31.4108V28.3599H175.107L175.105 32.81Z" fill="#676568"/>
<path d="M181.027 28.745C181.395 29.0374 181.65 29.4495 181.748 29.9104H180.82C180.731 29.68 180.575 29.4821 180.372 29.343C180.155 29.2003 179.9 29.1278 179.642 29.1354C179.416 29.1312 179.195 29.1935 179.005 29.3145C178.814 29.4354 178.663 29.6099 178.57 29.8162C178.461 30.0576 178.407 30.3206 178.414 30.5856C178.408 30.8485 178.461 31.1092 178.57 31.3482C178.663 31.5545 178.814 31.7288 179.005 31.8498C179.195 31.9708 179.417 32.0331 179.642 32.0291C179.9 32.0365 180.155 31.964 180.372 31.8214C180.575 31.6824 180.731 31.4845 180.82 31.254H181.748C181.65 31.715 181.395 32.1271 181.027 32.4195C180.666 32.6723 180.241 32.8195 179.802 32.8445C179.362 32.8695 178.924 32.7715 178.537 32.5613C178.214 32.372 177.953 32.093 177.784 31.7579C177.609 31.3912 177.518 30.9894 177.518 30.5825C177.518 30.1756 177.609 29.7739 177.784 29.4071C177.952 29.0727 178.212 28.7939 178.533 28.6037C178.921 28.3935 179.36 28.2954 179.8 28.3205C180.24 28.3455 180.665 28.4926 181.027 28.7455V28.745ZM180.491 33.2887C180.565 33.3513 180.624 33.4293 180.665 33.5174C180.705 33.6055 180.726 33.7014 180.726 33.7985C180.725 33.8955 180.704 33.9913 180.663 34.0791C180.622 34.1669 180.562 34.2446 180.488 34.3066C180.314 34.4229 180.108 34.4814 179.899 34.474H179.091V33.9946H179.805C180.018 33.9946 180.125 33.9191 180.125 33.7676C180.126 33.7378 180.119 33.7084 180.105 33.6821C180.091 33.6557 180.071 33.6332 180.046 33.6167C179.973 33.5737 179.889 33.5539 179.805 33.5599H179.392V32.7656H179.924V33.1378C180.125 33.1236 180.324 33.1765 180.491 33.2882V33.2887Z" fill="#676568"/>
<path d="M187.273 28.5867C187.607 28.7783 187.882 29.0586 188.068 29.3969C188.259 29.7594 188.359 30.1636 188.359 30.574C188.359 30.9844 188.259 31.3886 188.068 31.751C187.883 32.0907 187.607 32.3721 187.273 32.5641C186.928 32.7543 186.541 32.854 186.148 32.854C185.755 32.854 185.368 32.7543 185.023 32.5641C184.688 32.3725 184.412 32.091 184.227 31.751C184.036 31.3886 183.936 30.9844 183.936 30.574C183.936 30.1636 184.036 29.7594 184.227 29.3969C184.413 29.0584 184.689 28.778 185.023 28.5867C185.368 28.3967 185.755 28.2971 186.148 28.2971C186.541 28.2971 186.928 28.3967 187.273 28.5867ZM185.464 29.2931C185.265 29.414 185.105 29.5904 185.004 29.8009C184.894 30.0433 184.838 30.3065 184.838 30.5728C184.838 30.8391 184.894 31.1024 185.004 31.3448C185.105 31.5554 185.265 31.7317 185.464 31.8521C185.673 31.9679 185.908 32.0286 186.147 32.0286C186.386 32.0286 186.621 31.9679 186.83 31.8521C187.03 31.7316 187.19 31.5553 187.291 31.3448C187.401 31.1023 187.457 30.8391 187.457 30.5728C187.457 30.3066 187.401 30.0434 187.291 29.8009C187.189 29.5905 187.029 29.4141 186.83 29.2931C186.621 29.1774 186.386 29.1168 186.147 29.1168C185.908 29.1168 185.674 29.1774 185.464 29.2931ZM185.985 27.226C186.067 27.2632 186.146 27.3052 186.223 27.352C186.282 27.3897 186.344 27.4232 186.407 27.4524C186.456 27.4737 186.508 27.4845 186.561 27.4842C186.596 27.4853 186.63 27.4791 186.661 27.4661C186.693 27.4531 186.722 27.4336 186.746 27.4087C186.799 27.3467 186.831 27.2691 186.837 27.1874H187.295C187.274 27.4166 187.183 27.6337 187.034 27.8087C186.969 27.8763 186.89 27.9294 186.803 27.9646C186.716 27.9998 186.623 28.0163 186.529 28.013C186.449 28.0145 186.369 27.9996 186.295 27.9693C186.21 27.9317 186.128 27.8897 186.047 27.8434C185.972 27.8014 185.913 27.7702 185.869 27.7486C185.823 27.7271 185.773 27.7163 185.722 27.7168C185.567 27.7168 185.475 27.8156 185.446 28.013H184.995C185.082 27.4585 185.335 27.1814 185.754 27.1818C185.833 27.18 185.912 27.1949 185.985 27.2255L185.985 27.226Z" fill="#676568"/>
<path d="M191.643 29.0656V30.2186H193.21V30.8995H191.643V32.0961H193.397V32.8088H190.76V28.3586H193.397V29.0645L191.643 29.0656Z" fill="#676568"/>
<path d="M198.628 32.2198C198.507 32.418 198.333 32.5776 198.126 32.68C197.874 32.8025 197.597 32.8621 197.318 32.8536C197.03 32.8586 196.744 32.804 196.478 32.693C196.243 32.5949 196.038 32.435 195.886 32.23C195.736 32.0238 195.648 31.7789 195.632 31.5242H196.572C196.589 31.6955 196.665 31.8553 196.789 31.9747C196.855 32.0361 196.932 32.0836 197.017 32.1145C197.101 32.1454 197.191 32.159 197.281 32.1546C197.358 32.1597 197.435 32.1494 197.507 32.124C197.58 32.0987 197.647 32.0589 197.704 32.007C197.753 31.9568 197.791 31.897 197.816 31.8313C197.842 31.7656 197.853 31.6955 197.851 31.6252C197.855 31.5007 197.812 31.3793 197.732 31.2847C197.648 31.1913 197.545 31.1169 197.43 31.0668C197.31 31.0101 197.143 30.9494 196.929 30.8779C196.697 30.8033 196.471 30.7117 196.252 30.6038C196.073 30.5108 195.92 30.3757 195.804 30.2101C195.673 30.0109 195.608 29.7748 195.619 29.536C195.612 29.3633 195.645 29.1913 195.717 29.0341C195.788 28.8768 195.895 28.7387 196.03 28.631C196.343 28.3977 196.727 28.2808 197.117 28.3002C197.518 28.2792 197.913 28.3996 198.235 28.6406C198.371 28.7512 198.484 28.8889 198.565 29.045C198.647 29.2012 198.695 29.3726 198.708 29.5485H197.757C197.737 29.397 197.666 29.2569 197.556 29.1513C197.434 29.0432 197.274 28.9878 197.112 28.997C196.969 28.9903 196.828 29.0363 196.717 29.1263C196.627 29.2184 196.574 29.3406 196.567 29.4695C196.561 29.5985 196.602 29.7254 196.682 29.8259C196.765 29.9159 196.865 29.9877 196.977 30.037C197.136 30.1065 197.298 30.1673 197.463 30.2191C197.699 30.3004 197.93 30.3951 198.155 30.5028C198.337 30.5951 198.494 30.7316 198.61 30.9C198.743 31.1053 198.809 31.3478 198.798 31.5928C198.799 31.8135 198.74 32.0303 198.628 32.2198Z" fill="#676568"/>
<path d="M21.1224 15.2932H30.533C30.7593 15.2945 30.9833 15.2478 31.1904 15.1562C31.3975 15.0646 31.5831 14.9301 31.7351 14.7615C31.8871 14.593 32.0021 14.3941 32.0725 14.1778C32.143 13.9616 32.1674 13.7328 32.1441 13.5064C31.7489 10.2031 30.2735 7.12544 27.95 4.7574C25.6264 2.38936 22.5863 0.865181 19.3077 0.424444C19.0814 0.397928 18.852 0.420058 18.6348 0.489378C18.4176 0.558698 18.2175 0.673624 18.0478 0.826549C17.8781 0.979474 17.7426 1.16691 17.6502 1.37646C17.5579 1.58601 17.5109 1.81289 17.5122 2.04209L19.5085 13.6704C19.5085 13.8835 19.5503 14.0946 19.6314 14.2915C19.7125 14.4885 19.8314 14.6674 19.9812 14.8181C20.1311 14.9688 20.309 15.0883 20.5048 15.1698C20.7006 15.2513 20.9105 15.2932 21.1224 15.2932Z" fill="#7BAA39"/>
<path d="M11.0977 17.9407H1.68533C1.45903 17.9394 1.235 17.9861 1.02784 18.0777C0.820689 18.1694 0.635056 18.3039 0.483052 18.4725C0.331048 18.6412 0.216085 18.8401 0.145655 19.0565C0.0752253 19.2728 0.0509099 19.5016 0.0742967 19.728C0.4696 23.0313 1.94499 26.1088 4.26856 28.4767C6.59213 30.8446 9.63211 32.3687 12.9106 32.8094C13.137 32.836 13.3663 32.8138 13.5835 32.7445C13.8007 32.6752 14.0008 32.5603 14.1706 32.4073C14.3403 32.2544 14.4758 32.067 14.5681 31.8574C14.6605 31.6479 14.7075 31.421 14.7061 31.1918L12.7098 19.5635C12.7098 19.1333 12.54 18.7207 12.2377 18.4164C11.9354 18.1121 11.5253 17.941 11.0977 17.9407Z" fill="#7BAA39"/>
<path d="M15.4287 19.6497L17.425 31.1259C17.4237 31.3535 17.4701 31.5789 17.5612 31.7872C17.6523 31.9956 17.7861 32.1823 17.9537 32.3352C18.1214 32.4881 18.3192 32.6038 18.5342 32.6746C18.7493 32.7455 18.9768 32.7699 19.2019 32.7464C22.4861 32.3487 25.5458 30.8644 27.8999 28.5268C30.2541 26.1893 31.7691 23.131 32.2069 19.8329C32.2333 19.6053 32.2113 19.3745 32.1423 19.1561C32.0734 18.9376 31.9592 18.7363 31.8071 18.5656C31.6551 18.3949 31.4688 18.2586 31.2604 18.1657C31.0521 18.0728 30.8266 18.0255 30.5987 18.0269H17.042C16.6141 18.0269 16.2038 18.1979 15.9012 18.5022C15.5987 18.8065 15.4287 19.2193 15.4287 19.6497Z" fill="#449941"/>
<path d="M16.789 13.5834L14.7927 2.10721C14.794 1.87958 14.7476 1.65423 14.6565 1.44585C14.5654 1.23748 14.4316 1.05076 14.264 0.897863C14.0963 0.744965 13.8985 0.629319 13.6835 0.558475C13.4684 0.487631 13.2409 0.463177 13.0158 0.486702C9.73156 0.884316 6.67181 2.3686 4.31767 4.70617C1.96352 7.04375 0.448501 10.102 0.0108054 13.4002C-0.0155558 13.6278 0.00644943 13.8586 0.0753643 14.077C0.144279 14.2955 0.258534 14.4968 0.410566 14.6675C0.562598 14.8382 0.748939 14.9745 0.957265 15.0674C1.16559 15.1603 1.39115 15.2076 1.61901 15.2062H15.1757C15.6036 15.2062 16.0139 15.0352 16.3165 14.7309C16.619 14.4266 16.789 14.0138 16.789 13.5834Z" fill="#449941"/>
</svg>
