<svg width="13" height="12" viewBox="0 0 13 12" fill="none" xmlns="http://www.w3.org/2000/svg">
<path d="M5 11.4998C5.27614 11.4998 5.5 11.2759 5.5 10.9998C5.5 10.7236 5.27614 10.4998 5 10.4998C4.72386 10.4998 4.5 10.7236 4.5 10.9998C4.5 11.2759 4.72386 11.4998 5 11.4998Z" stroke="white" stroke-linecap="round" stroke-linejoin="round"/>
<path d="M10.5005 11.4998C10.7766 11.4998 11.0005 11.2759 11.0005 10.9998C11.0005 10.7236 10.7766 10.4998 10.5005 10.4998C10.2243 10.4998 10.0005 10.7236 10.0005 10.9998C10.0005 11.2759 10.2243 11.4998 10.5005 11.4998Z" stroke="white" stroke-linecap="round" stroke-linejoin="round"/>
<path d="M1 1H3L4.34 7.695C4.38572 7.9252 4.51095 8.13198 4.69377 8.27915C4.87659 8.42632 5.10535 8.5045 5.34 8.5H10.2C10.4347 8.5045 10.6634 8.42632 10.8462 8.27915C11.029 8.13198 11.1543 7.9252 11.2 7.695L12 3.5H3.5" stroke="white" stroke-linecap="round" stroke-linejoin="round"/>
</svg>
