<svg width="38" height="38" viewBox="0 0 38 38" fill="none" xmlns="http://www.w3.org/2000/svg">
<circle opacity="0.3" cx="19" cy="19" r="19" fill="#C4C4C4"/>
<path d="M19 18C21.4863 18 23.5 16.21 23.5 14C23.5 11.79 21.4863 10 19 10C16.5138 10 14.5 11.79 14.5 14C14.5 16.21 16.5138 18 19 18ZM19 12C20.2375 12 21.25 12.9 21.25 14C21.25 15.1 20.2375 16 19 16C17.7625 16 16.75 15.1 16.75 14C16.75 12.9 17.7625 12 19 12ZM19 19C15.9963 19 10 20.34 10 23V26H28V23C28 20.34 22.0038 19 19 19ZM25.75 24H12.25V23.01C12.475 22.29 15.9625 21 19 21C22.0375 21 25.525 22.29 25.75 23V24Z" fill="#595C76"/>
</svg>
