<svg width="22" height="22" viewBox="0 0 22 22" fill="none" xmlns="http://www.w3.org/2000/svg">
<line x1="16.3449" y1="5.34489" x2="5.73825" y2="15.9515" stroke="#EB5757"/>
<line x1="5.73817" y1="5.2618" x2="16.3448" y2="15.8684" stroke="#EB5757"/>
</svg>
