<svg width="16" height="15" viewBox="0 0 16 15" fill="none" xmlns="http://www.w3.org/2000/svg">
<path d="M8 1L10.163 5.27865L15 5.96898L11.5 9.29758L12.326 14L8 11.7787L3.674 14L4.5 9.29758L1 5.96898L5.837 5.27865L8 1Z" stroke="#132847" stroke-width="1.5" stroke-linecap="round" stroke-linejoin="round"/>
</svg>
