<svg width="226" height="39" viewBox="0 0 226 39" fill="none" xmlns="http://www.w3.org/2000/svg">
<g style="mix-blend-mode:luminosity">
<path d="M61.1514 9.63912C62.3353 10.9875 62.927 12.8414 62.9266 15.201V25.4409H57.5542V15.8339C57.6137 14.8258 57.2812 13.834 56.627 13.068C56.31 12.7351 55.926 12.4741 55.5007 12.3024C55.0753 12.1308 54.6185 12.0523 54.1606 12.0725C53.6795 12.049 53.1989 12.13 52.7516 12.31C52.3044 12.49 51.9009 12.7647 51.5685 13.1155C50.8832 13.946 50.5406 15.0092 50.6113 16.0862V25.4409H45.2383V7.80654H50.6107V11.0301C51.0984 9.99326 51.8799 9.12456 52.8569 8.53314C53.9167 7.90449 55.1303 7.58698 56.3603 7.61655C57.2579 7.57582 58.1534 7.73614 58.9819 8.08591C59.8105 8.43569 60.5515 8.9662 61.1514 9.63912Z" fill="white"/>
<path d="M75.9662 8.50094C76.9146 9.09489 77.66 9.96605 78.1027 10.9978V7.80578H83.4438V25.4408H78.1027V22.2487C77.6605 23.281 76.915 24.1525 75.9662 24.7463C74.9251 25.3781 73.7255 25.696 72.5101 25.6622C71.139 25.6827 69.7914 25.3037 68.6296 24.571C67.4507 23.8014 66.5135 22.7106 65.9271 21.4258C65.2746 19.9066 64.938 18.2692 64.938 16.6143C64.938 14.9594 65.2746 13.3219 65.9271 11.8028C66.5168 10.5244 67.4536 9.43963 68.6296 8.67359C69.7912 7.94052 71.139 7.56153 72.5101 7.58241C73.7258 7.54937 74.9254 7.86818 75.9662 8.50094ZM71.4572 13.4627C70.7743 14.3731 70.4049 15.4825 70.4049 16.623C70.4049 17.7634 70.7743 18.8728 71.4572 19.7833C72.2004 20.5179 73.2024 20.9269 74.2444 20.9209C75.2864 20.9149 76.2837 20.4944 77.0185 19.7512C77.7206 18.8582 78.1026 17.7531 78.1026 16.6146C78.1026 15.4762 77.7206 14.371 77.0185 13.4781C76.663 13.0981 76.2313 12.7986 75.7519 12.5994C75.2726 12.4002 74.7565 12.3059 74.2381 12.3227C73.7204 12.3014 73.2042 12.3923 72.7245 12.589C72.2447 12.7858 71.8125 13.084 71.4572 13.4633V13.4627Z" fill="white"/>
<path d="M100.033 9.46527C101.593 10.7736 102.621 12.6122 102.923 14.6324H97.2363C97.1071 13.9387 96.7401 13.3125 96.1993 12.8627C95.6328 12.4276 94.9334 12.2044 94.2211 12.2311C93.7734 12.2228 93.3299 12.32 92.9262 12.5148C92.5224 12.7096 92.1696 12.9967 91.8958 13.3531C91.3 14.3389 90.985 15.4703 90.985 16.6238C90.985 17.7774 91.3 18.9088 91.8958 19.8945C92.1696 20.251 92.5224 20.5381 92.9262 20.7329C93.3299 20.9277 93.7734 21.0248 94.2211 21.0165C94.9335 21.0435 95.633 20.8199 96.1993 20.3843C96.7401 19.9346 97.1071 19.3084 97.2363 18.6146H102.923C102.622 20.6351 101.593 22.4738 100.033 23.7818C98.4176 25.0654 96.4027 25.7317 94.3456 25.6625C92.7546 25.6925 91.1819 25.3171 89.774 24.5713C88.45 23.8507 87.3635 22.7578 86.6472 21.4261C85.906 19.9322 85.5189 18.286 85.5161 16.6164C85.5134 14.9469 85.895 13.2993 86.6312 11.803C87.345 10.4734 88.4326 9.38503 89.758 8.67383C91.1717 7.92863 92.7491 7.55337 94.3449 7.58265C96.4024 7.51437 98.4175 8.18134 100.033 9.46527Z" fill="white"/>
<path d="M105.468 0.805542C106.131 0.283564 106.95 0 107.792 0C108.635 0 109.453 0.283564 110.117 0.805542C110.402 1.06046 110.629 1.37494 110.781 1.72705C110.933 2.07916 111.007 2.4604 110.997 2.84415C111.004 3.22298 110.93 3.59888 110.778 3.94558C110.626 4.29227 110.4 4.6014 110.117 4.85132C109.453 5.37351 108.635 5.65719 107.792 5.65719C106.95 5.65719 106.131 5.37351 105.468 4.85132C105.185 4.60137 104.959 4.29224 104.807 3.94554C104.655 3.59884 104.581 3.22294 104.588 2.84415C104.578 2.46045 104.652 2.07922 104.804 1.72711C104.956 1.375 105.182 1.06049 105.468 0.805542ZM110.463 7.80589V25.4409H105.09V7.80589H110.463Z" fill="white"/>
<path d="M126.407 8.67499C127.765 9.38806 128.889 10.4802 129.644 11.8202C130.417 13.3019 130.821 14.9505 130.821 16.624C130.821 18.2976 130.417 19.9461 129.644 21.4279C128.889 22.768 127.765 23.8601 126.407 24.5731C124.953 25.2903 123.354 25.6631 121.734 25.6631C120.114 25.6631 118.515 25.2903 117.061 24.5731C115.696 23.864 114.565 22.7713 113.806 21.4279C113.033 19.9461 112.629 18.2976 112.629 16.624C112.629 14.9505 113.033 13.3019 113.806 11.8202C114.565 10.4768 115.696 9.38417 117.061 8.67499C118.515 7.95751 120.114 7.58447 121.734 7.58447C123.354 7.58447 124.953 7.95751 126.407 8.67499ZM119.15 13.3838C118.394 14.2854 118.017 15.447 118.097 16.6234C118.015 17.7951 118.393 18.9525 119.15 19.8469C119.48 20.2044 119.882 20.4878 120.328 20.6783C120.775 20.8689 121.257 20.9625 121.742 20.9529C122.225 20.9634 122.704 20.8702 123.149 20.6795C123.593 20.4887 123.992 20.2049 124.318 19.8469C125.066 18.948 125.438 17.7925 125.356 16.6234C125.436 15.4496 125.064 14.2898 124.318 13.3838C123.994 13.0218 123.596 12.7342 123.151 12.5406C122.707 12.347 122.226 12.2519 121.742 12.2618C121.255 12.2527 120.773 12.3481 120.326 12.5416C119.879 12.735 119.478 13.0222 119.15 13.3838Z" fill="white"/>
<path d="M148.809 9.63912C149.992 10.9875 150.583 12.8414 150.584 15.201V25.4409H145.21V15.8339C145.27 14.8259 144.938 13.8341 144.284 13.068C143.967 12.7351 143.583 12.4741 143.158 12.3024C142.732 12.1308 142.275 12.0524 141.818 12.0725C141.336 12.049 140.856 12.13 140.409 12.31C139.961 12.49 139.558 12.7647 139.225 13.1155C138.54 13.9459 138.197 15.0092 138.268 16.0862V25.4409H132.895V7.80654H138.267V11.0301C138.755 9.99308 139.536 9.12434 140.514 8.53314C141.574 7.9045 142.787 7.58698 144.017 7.61655C144.915 7.57582 145.81 7.73612 146.639 8.0859C147.468 8.43567 148.209 8.96618 148.809 9.63912Z" fill="white"/>
<path d="M163.623 8.50109C164.572 9.09501 165.317 9.96618 165.76 10.998V7.80593H171.103V25.4409H165.762V22.2489C165.32 23.2812 164.575 24.1527 163.626 24.7464C162.585 25.3781 161.385 25.696 160.17 25.6624C158.799 25.6829 157.451 25.3039 156.29 24.5712C155.111 23.8017 154.173 22.7109 153.587 21.426C152.935 19.9068 152.598 18.2694 152.598 16.6144C152.598 14.9595 152.935 13.3221 153.587 11.8029C154.177 10.5244 155.114 9.43963 156.29 8.67375C157.451 7.94064 158.799 7.56165 160.17 7.58256C161.385 7.55021 162.583 7.86899 163.623 8.50109ZM159.114 13.4628C158.431 14.3731 158.061 15.4826 158.061 16.6231C158.061 17.7637 158.431 18.8731 159.114 19.7834C159.857 20.5181 160.86 20.9271 161.902 20.9211C162.944 20.9151 163.941 20.4945 164.676 19.7513C165.378 18.8582 165.76 17.7531 165.76 16.6148C165.76 15.4764 165.378 14.3713 164.676 13.4782C164.321 13.0983 163.889 12.7987 163.409 12.5995C162.93 12.4003 162.414 12.306 161.895 12.3228C161.377 12.3016 160.861 12.3925 160.381 12.5893C159.902 12.786 159.469 13.0842 159.114 13.4635V13.4628Z" fill="white"/>
<path d="M178.924 2.05396V25.4408H173.552V2.05396H178.924Z" fill="white"/>
<path d="M182.978 1.15094C183.544 0.711024 184.24 0.472412 184.956 0.472412C185.672 0.472412 186.367 0.711024 186.934 1.15094C187.18 1.36958 187.375 1.64014 187.506 1.94336C187.636 2.24658 187.698 2.575 187.688 2.9052C187.696 3.2304 187.633 3.55335 187.502 3.85104C187.372 4.14872 187.178 4.4138 186.934 4.62735C186.367 5.06748 185.672 5.30623 184.956 5.30623C184.24 5.30623 183.544 5.06748 182.978 4.62735C182.734 4.41383 182.539 4.14877 182.409 3.85108C182.279 3.55338 182.215 3.2304 182.223 2.9052C182.213 2.575 182.275 2.24658 182.406 1.94336C182.536 1.64014 182.731 1.36958 182.978 1.15094ZM187.156 7.92983V25.4384H182.726V7.9324L187.156 7.92983Z" fill="white"/>
<path d="M204.467 9.67062C205.661 10.9972 206.258 12.8616 206.258 15.264V25.4429H201.86V15.7704C201.932 14.5924 201.55 13.4317 200.791 12.5308C200.414 12.14 199.959 11.8347 199.455 11.6355C198.951 11.4362 198.41 11.3476 197.87 11.3755C197.308 11.3506 196.748 11.4478 196.228 11.6605C195.707 11.8732 195.239 12.1963 194.854 12.6079C194.041 13.599 193.636 14.8653 193.722 16.1472V25.4429H189.292V7.93176H193.722V11.4403C194.157 10.2911 194.958 9.31888 196 8.67507C197.101 7.9991 198.371 7.6537 199.661 7.67952C200.558 7.6392 201.453 7.79649 202.283 8.14042C203.113 8.48435 203.859 9.0066 204.467 9.67062Z" fill="white"/>
<path d="M223.444 9.67042C224.638 10.997 225.235 12.8614 225.235 15.2638V25.4427H220.836V15.7702C220.909 14.5922 220.526 13.4314 219.768 12.5306C219.391 12.1397 218.935 11.8344 218.431 11.6351C217.927 11.4359 217.387 11.3473 216.846 11.3753C216.285 11.3505 215.725 11.4478 215.204 11.6604C214.684 11.8731 214.215 12.1962 213.83 12.6077C213.018 13.599 212.613 14.8652 212.699 16.147V25.4427H208.268V7.93156H212.698V11.4401C213.133 10.2909 213.934 9.31871 214.975 8.67487C216.077 7.99897 217.347 7.65356 218.636 7.67932C219.534 7.63885 220.429 7.79609 221.259 8.14002C222.09 8.48396 222.835 9.00627 223.444 9.67042Z" fill="white"/>
<path d="M49.9234 32.0823V37.1165H48.9171V34.9271H46.7762V37.1165H45.7769V32.0823H46.7762V34.1222H48.9171V32.0823H49.9234Z" fill="white"/>
<path d="M56.4167 32.3385C56.7946 32.5553 57.1061 32.8724 57.317 33.2551C57.5332 33.6653 57.6463 34.1225 57.6463 34.5867C57.6463 35.0509 57.5332 35.5081 57.317 35.9183C57.1071 36.3026 56.7955 36.621 56.4167 36.8381C56.0266 37.0532 55.589 37.166 55.1442 37.166C54.6994 37.166 54.2618 37.0532 53.8718 36.8381C53.4928 36.6212 53.1811 36.3028 52.9714 35.9183C52.7551 35.5081 52.6421 35.051 52.6421 34.5867C52.6421 34.1225 52.7551 33.6653 52.9714 33.2551C53.1821 32.8722 53.4936 32.5551 53.8718 32.3385C54.2619 32.1236 54.6995 32.011 55.1442 32.011C55.589 32.011 56.0266 32.1236 56.4167 32.3385ZM54.3746 33.137C54.1496 33.274 53.9687 33.4735 53.8539 33.7115C53.7302 33.9858 53.6662 34.2836 53.6662 34.5848C53.6662 34.886 53.7302 35.1837 53.8539 35.458C53.9682 35.6962 54.1492 35.8957 54.3746 36.0319C54.6114 36.1629 54.8772 36.2316 55.1474 36.2316C55.4176 36.2316 55.6834 36.1629 55.9202 36.0319C56.1456 35.8957 56.3266 35.6962 56.4409 35.458C56.5646 35.1837 56.6286 34.886 56.6286 34.5848C56.6286 34.2836 56.5646 33.9858 56.4409 33.7115C56.3261 33.4735 56.1452 33.274 55.9202 33.137C55.6834 33.0062 55.4176 32.9376 55.1474 32.9376C54.8772 32.9376 54.6114 33.0062 54.3746 33.137Z" fill="white"/>
<path d="M63.5616 32.0823V32.8808H62.1794V37.1172H61.1801V32.8808H59.8049V32.0823H63.5616Z" fill="white"/>
<path d="M67.0414 32.8809V34.1853H68.8135V34.9555H67.0414V36.3092H69.0254V37.1154H66.0415V32.0812H69.0254V32.8797L67.0414 32.8809ZM68.6081 31.0124L66.9776 31.7827V31.0978L68.6081 30.2422V31.0124Z" fill="white"/>
<path d="M72.7979 32.0823V37.1165H71.7986V32.0823H72.7979Z" fill="white"/>
<path d="M78.9647 36.449C78.8287 36.6732 78.6319 36.8538 78.3974 36.9695C78.1128 37.1081 77.799 37.1755 77.4829 37.1659C77.1572 37.1717 76.8337 37.1098 76.5328 36.9843C76.2667 36.8733 76.0353 36.6924 75.8627 36.4605C75.6934 36.2273 75.5938 35.9503 75.5756 35.662H76.6387C76.6573 35.8558 76.7439 36.0364 76.8831 36.1717C76.9578 36.241 77.0454 36.2948 77.141 36.3297C77.2365 36.3646 77.338 36.3801 77.4396 36.3752C77.5264 36.381 77.6135 36.3692 77.6957 36.3406C77.7779 36.3119 77.8536 36.2669 77.9182 36.2083C77.9736 36.1514 78.017 36.0838 78.0456 36.0095C78.0743 35.9352 78.0876 35.8559 78.0847 35.7763C78.0892 35.6355 78.0412 35.4981 77.9501 35.3912C77.8554 35.2853 77.7392 35.2013 77.6093 35.1447C77.4721 35.0805 77.2832 35.0118 77.0426 34.9309C76.7802 34.8466 76.5242 34.743 76.2769 34.6209C76.0748 34.5156 75.901 34.3628 75.7702 34.1754C75.6219 33.95 75.5486 33.683 75.5609 33.4129C75.5527 33.2175 75.5906 33.0229 75.6713 32.845C75.752 32.6671 75.8734 32.5109 76.0255 32.3891C76.38 32.1252 76.8146 31.9929 77.2551 32.0149C77.7085 31.9911 78.1558 32.1273 78.5199 32.4C78.6745 32.525 78.8018 32.6807 78.8939 32.8574C78.986 33.0341 79.041 33.228 79.0553 33.427H77.9781C77.9554 33.2557 77.8755 33.0973 77.7516 32.9777C77.6128 32.8558 77.4321 32.7931 77.2481 32.8031C77.0864 32.7953 76.9275 32.8474 76.8014 32.9494C76.6993 33.0535 76.6389 33.1917 76.6317 33.3377C76.6245 33.4837 76.6711 33.6272 76.7625 33.7409C76.8561 33.8426 76.9694 33.9239 77.0956 33.9797C77.2749 34.0583 77.4583 34.1271 77.645 34.1857C77.9119 34.2776 78.1733 34.3848 78.428 34.5066C78.6341 34.6109 78.8109 34.7653 78.9423 34.956C79.0934 35.1882 79.1678 35.4625 79.1549 35.7397C79.1574 35.9892 79.0916 36.2346 78.9647 36.449Z" fill="white"/>
<path d="M86.0952 32.8808V34.1851H87.866V34.9554H86.094V36.3091H88.0779V37.1153H85.094V32.0811H88.0779V32.8796L86.0952 32.8808Z" fill="white"/>
<path d="M97.8332 32.5183C98.2491 32.849 98.5375 33.3152 98.6487 33.8367H97.5996C97.499 33.576 97.3221 33.3522 97.0923 33.1948C96.8475 33.0334 96.5593 32.9514 96.2666 32.9599C96.0118 32.9552 95.7612 33.0256 95.5458 33.1625C95.3303 33.2994 95.1594 33.4967 95.0542 33.7301C94.9307 34.0032 94.8701 34.3007 94.8767 34.6005C94.8704 34.8979 94.931 35.1928 95.0542 35.4632C95.1595 35.6966 95.3305 35.8938 95.5459 36.0307C95.7613 36.1675 96.0118 36.238 96.2666 36.2335C96.5592 36.2418 96.8474 36.1598 97.0923 35.9985C97.3222 35.8412 97.4991 35.6174 97.5996 35.3567H98.6487C98.5376 35.8782 98.2492 36.3444 97.8332 36.6751C97.4242 36.9611 96.9444 37.1275 96.4471 37.1558C95.9498 37.1841 95.4544 37.0733 95.0159 36.8356C94.6512 36.6213 94.3558 36.3057 94.1652 35.9267C93.9668 35.5118 93.8638 35.0574 93.8638 34.597C93.8638 34.1366 93.9668 33.6822 94.1652 33.2673C94.3551 32.889 94.649 32.5736 95.012 32.3584C95.4512 32.1206 95.9472 32.0097 96.4451 32.038C96.9431 32.0663 97.4235 32.2328 97.8332 32.5189V32.5183Z" fill="white"/>
<path d="M102.349 32.8808V34.1851H104.121V34.9554H102.349V36.3091H104.333V37.1153H101.349V32.0811H104.333V32.8796L102.349 32.8808Z" fill="white"/>
<path d="M111.338 37.1165H110.339L108.099 33.694V37.1165H107.099V32.0823H108.099L110.339 35.5337V32.0823H111.338V37.1165Z" fill="white"/>
<path d="M117.58 32.0823V32.8808H116.198V37.1172H115.198V32.8808H113.823V32.0823H117.58Z" fill="white"/>
<path d="M122.673 37.1166L121.503 35.1556H121.064V37.1166H120.065V32.0823H121.972C122.453 32.0482 122.929 32.2015 123.301 32.5104C123.567 32.7835 123.728 33.1433 123.754 33.5249C123.78 33.9066 123.67 34.2851 123.443 34.5921C123.207 34.8635 122.885 35.0449 122.532 35.1056L123.779 37.1166H122.673ZM121.064 34.463H121.886C122.457 34.463 122.743 34.2089 122.744 33.7005C122.75 33.5965 122.734 33.4924 122.698 33.3947C122.662 33.297 122.607 33.2079 122.534 33.1331C122.353 32.9834 122.12 32.9106 121.886 32.9302H121.064V34.463Z" fill="white"/>
<path d="M129.967 32.3385C130.345 32.555 130.656 32.8722 130.867 33.2551C131.084 33.6652 131.197 34.1224 131.197 34.5867C131.197 35.051 131.084 35.5082 130.867 35.9183C130.657 36.3028 130.346 36.6213 129.967 36.8381C129.577 37.0532 129.139 37.166 128.694 37.166C128.25 37.166 127.812 37.0532 127.422 36.8381C127.043 36.621 126.731 36.3026 126.522 35.9183C126.305 35.5082 126.192 35.051 126.192 34.5867C126.192 34.1224 126.305 33.6652 126.522 33.2551C126.732 32.8723 127.044 32.5552 127.422 32.3385C127.812 32.1236 128.25 32.011 128.694 32.011C129.139 32.011 129.577 32.1236 129.967 32.3385ZM127.925 33.137C127.7 33.274 127.519 33.4735 127.403 33.7115C127.28 33.9859 127.216 34.2836 127.216 34.5848C127.216 34.886 127.28 35.1837 127.403 35.458C127.518 35.6963 127.699 35.8957 127.925 36.0319C128.162 36.1629 128.427 36.2316 128.698 36.2316C128.968 36.2316 129.234 36.1629 129.47 36.0319C129.696 35.8958 129.877 35.6964 129.991 35.458C130.115 35.1838 130.179 34.8861 130.179 34.5848C130.179 34.2835 130.115 33.9858 129.991 33.7115C129.876 33.4734 129.695 33.2738 129.47 33.137C129.233 33.0062 128.968 32.9376 128.698 32.9376C128.427 32.9376 128.162 33.0062 127.925 33.137Z" fill="white"/>
<path d="M137.081 36.449C136.945 36.6733 136.749 36.8539 136.515 36.9695C136.23 37.1081 135.916 37.1755 135.599 37.166C135.274 37.1715 134.951 37.1097 134.65 36.9843C134.384 36.8734 134.152 36.6924 133.98 36.4605C133.811 36.2273 133.711 35.9503 133.693 35.662H134.756C134.774 35.8559 134.861 36.0367 135.001 36.1717C135.075 36.241 135.163 36.2946 135.258 36.3296C135.354 36.3645 135.455 36.38 135.557 36.3752C135.644 36.381 135.731 36.3692 135.813 36.3406C135.895 36.3119 135.971 36.2669 136.035 36.2083C136.091 36.1514 136.134 36.0838 136.163 36.0095C136.191 35.9353 136.205 35.8559 136.202 35.7763C136.206 35.6355 136.158 35.4981 136.067 35.3912C135.972 35.2857 135.856 35.2017 135.726 35.1447C135.589 35.0805 135.4 35.0118 135.16 34.9309C134.897 34.8467 134.641 34.7431 134.394 34.6209C134.192 34.5154 134.018 34.3627 133.887 34.1754C133.739 33.95 133.666 33.6829 133.679 33.4129C133.67 33.2176 133.708 33.023 133.789 32.8451C133.869 32.6672 133.991 32.511 134.143 32.3891C134.498 32.1255 134.932 31.9933 135.373 32.0149C135.826 31.9911 136.274 32.1273 136.638 32.4C136.793 32.5251 136.92 32.6808 137.012 32.8575C137.104 33.0341 137.159 33.228 137.174 33.427H136.096C136.074 33.2556 135.994 33.097 135.869 32.9777C135.731 32.8558 135.55 32.7931 135.366 32.8031C135.204 32.7953 135.045 32.8474 134.919 32.9494C134.817 33.0535 134.757 33.1917 134.749 33.3377C134.742 33.4837 134.789 33.6272 134.88 33.7409C134.974 33.8427 135.087 33.924 135.213 33.9797C135.393 34.0584 135.576 34.1271 135.763 34.1857C136.03 34.2776 136.291 34.3848 136.546 34.5066C136.752 34.611 136.929 34.7654 137.06 34.956C137.211 35.1882 137.286 35.4625 137.273 35.7397C137.275 35.9893 137.209 36.2347 137.081 36.449Z" fill="white"/>
<path d="M147.303 35.9111C147.096 36.2907 146.781 36.5999 146.399 36.7995C145.963 37.0205 145.48 37.1294 144.992 37.1166H143.213V32.0823H144.993C145.48 32.0696 145.963 32.1762 146.4 32.393C146.782 32.5875 147.097 32.893 147.304 33.2698C147.509 33.6795 147.616 34.1318 147.616 34.5905C147.616 35.0491 147.509 35.5014 147.304 35.9111H147.303ZM146.158 35.7904C146.444 35.4564 146.601 35.0301 146.601 34.5892C146.601 34.1482 146.444 33.7219 146.158 33.3879C145.813 33.0846 145.363 32.9307 144.907 32.9598H144.213V36.2179H144.907C145.363 36.2469 145.813 36.0932 146.157 35.7904H146.158Z" fill="white"/>
<path d="M151.333 32.8808V34.1851H153.105V34.9554H151.333V36.3091H153.317V37.1153H150.333V32.0811H153.317V32.8796L151.333 32.8808Z" fill="white"/>
<path d="M163.071 32.5182C163.486 32.8489 163.775 33.3151 163.885 33.8366H162.837C162.737 33.576 162.56 33.3521 162.33 33.1947C162.085 33.0334 161.797 32.9515 161.505 32.9598C161.25 32.9551 160.999 33.0255 160.784 33.1624C160.568 33.2993 160.397 33.4966 160.292 33.73C160.169 34.0031 160.108 34.3006 160.115 34.6004C160.109 34.8977 160.169 35.1926 160.292 35.4631C160.398 35.6964 160.568 35.8937 160.784 36.0305C160.999 36.1674 161.25 36.2379 161.505 36.2334C161.797 36.2415 162.085 36.1595 162.33 35.9984C162.56 35.8411 162.737 35.6172 162.837 35.3566H163.886C163.775 35.878 163.487 36.3443 163.071 36.675C162.662 36.961 162.182 37.1274 161.685 37.1558C161.187 37.1841 160.692 37.0732 160.253 36.8354C159.889 36.6211 159.593 36.3055 159.403 35.9265C159.205 35.5115 159.102 35.0571 159.102 34.5969C159.102 34.1366 159.205 33.6822 159.403 33.2672C159.592 32.8889 159.886 32.5734 160.249 32.3583C160.689 32.1206 161.185 32.0097 161.682 32.038C162.18 32.0664 162.661 32.2327 163.071 32.5188V32.5182Z" fill="white"/>
<path d="M170.136 32.3386C170.514 32.5551 170.826 32.8722 171.037 33.2552C171.253 33.6654 171.366 34.1225 171.366 34.5868C171.366 35.051 171.253 35.5082 171.037 35.9184C170.827 36.3029 170.515 36.6214 170.136 36.8382C169.746 37.0532 169.308 37.1659 168.864 37.1659C168.419 37.1659 167.982 37.0532 167.592 36.8382C167.213 36.6211 166.901 36.3027 166.691 35.9184C166.475 35.5082 166.362 35.051 166.362 34.5868C166.362 34.1225 166.475 33.6654 166.691 33.2552C166.902 32.8725 167.214 32.5554 167.592 32.3386C167.982 32.1238 168.419 32.0112 168.864 32.0112C169.308 32.0112 169.746 32.1238 170.136 32.3386ZM168.094 33.1371C167.869 33.2741 167.688 33.4736 167.573 33.7116C167.449 33.986 167.385 34.2837 167.385 34.5849C167.385 34.886 167.449 35.1837 167.573 35.4581C167.687 35.6963 167.868 35.8957 168.094 36.032C168.331 36.1631 168.596 36.2318 168.867 36.2318C169.137 36.2318 169.403 36.1631 169.639 36.032C169.865 35.8959 170.046 35.6965 170.16 35.4581C170.284 35.1839 170.348 34.8861 170.348 34.5849C170.348 34.2836 170.284 33.9858 170.16 33.7116C170.046 33.4734 169.865 33.2738 169.639 33.1371C169.403 33.0063 169.137 32.9377 168.867 32.9377C168.596 32.9377 168.331 33.0063 168.094 33.1371Z" fill="white"/>
<path d="M178.32 37.1165H177.319L175.08 33.694V37.1165H174.08V32.0823H175.08L177.319 35.5337V32.0823H178.319L178.32 37.1165Z" fill="white"/>
<path d="M181.867 32.0823L183.207 36.069L184.554 32.0823H185.624L183.852 37.1165H182.569L180.796 32.0823H181.867Z" fill="white"/>
<path d="M189.099 32.8808V34.1851H190.871V34.9554H189.099V36.3091H191.085V37.1153H188.101V32.0811H191.085V32.8796L189.099 32.8808Z" fill="white"/>
<path d="M198.089 37.1165H197.09L194.849 33.694V37.1165H193.853V32.0823H194.853L197.093 35.5337V32.0823H198.092L198.089 37.1165Z" fill="white"/>
<path d="M204.789 32.5183C205.205 32.8491 205.493 33.3152 205.605 33.8367H204.555C204.454 33.576 204.278 33.3522 204.048 33.1948C203.803 33.0333 203.515 32.9513 203.222 32.9599C202.967 32.9552 202.717 33.0256 202.501 33.1625C202.286 33.2993 202.115 33.4967 202.01 33.7301C201.886 34.0032 201.826 34.3007 201.833 34.6005C201.826 34.8978 201.886 35.1928 202.01 35.4632C202.115 35.6965 202.286 35.8938 202.501 36.0306C202.717 36.1675 202.967 36.238 203.222 36.2335C203.515 36.2418 203.803 36.1598 204.048 35.9985C204.278 35.8412 204.455 35.6174 204.555 35.3566H205.605C205.494 35.8781 205.205 36.3443 204.789 36.6751C204.38 36.9611 203.901 37.1276 203.403 37.1559C202.906 37.1842 202.41 37.0733 201.972 36.8355C201.607 36.6213 201.312 36.3057 201.121 35.9266C200.922 35.5118 200.819 35.0573 200.819 34.597C200.819 34.1366 200.922 33.6822 201.121 33.2673C201.311 32.889 201.604 32.5735 201.967 32.3584C202.407 32.1206 202.903 32.0097 203.401 32.038C203.899 32.0663 204.379 32.2328 204.789 32.5189V32.5183ZM204.183 37.6584C204.267 37.7292 204.333 37.8175 204.379 37.9171C204.425 38.0168 204.449 38.1253 204.448 38.2351C204.448 38.3449 204.424 38.4532 204.377 38.5526C204.331 38.6519 204.263 38.7398 204.179 38.81C203.982 38.9414 203.749 39.0076 203.513 38.9993H202.599V38.4569H203.407C203.648 38.4569 203.769 38.3715 203.769 38.2002C203.769 38.1665 203.761 38.1332 203.746 38.1034C203.73 38.0736 203.707 38.0481 203.68 38.0294C203.597 37.9808 203.502 37.9584 203.407 37.9652H202.939V37.0666H203.542V37.4877C203.768 37.4716 203.994 37.5314 204.183 37.6578V37.6584Z" fill="white"/>
<path d="M211.855 32.3392C212.233 32.556 212.544 32.8731 212.755 33.2558C212.971 33.6659 213.084 34.1231 213.084 34.5874C213.084 35.0517 212.971 35.5089 212.755 35.919C212.545 36.3032 212.233 36.6216 211.855 36.8388C211.465 37.0539 211.027 37.1667 210.582 37.1667C210.138 37.1667 209.7 37.0539 209.31 36.8388C208.931 36.622 208.619 36.3035 208.41 35.919C208.193 35.5089 208.08 35.0517 208.08 34.5874C208.08 34.1231 208.193 33.6659 208.41 33.2558C208.62 32.8728 208.932 32.5557 209.31 32.3392C209.7 32.1243 210.138 32.0117 210.582 32.0117C211.027 32.0117 211.465 32.1243 211.855 32.3392ZM209.809 33.1383C209.584 33.2752 209.403 33.4748 209.288 33.7128C209.164 33.9871 209.1 34.2848 209.1 34.5861C209.1 34.8874 209.164 35.1851 209.288 35.4594C209.403 35.6976 209.584 35.8971 209.809 36.0332C210.046 36.1643 210.312 36.233 210.582 36.233C210.852 36.233 211.118 36.1643 211.355 36.0332C211.58 35.897 211.761 35.6976 211.876 35.4594C212 35.185 212.064 34.8873 212.064 34.5861C212.064 34.2849 212 33.9872 211.876 33.7128C211.761 33.4748 211.58 33.2753 211.355 33.1383C211.118 33.0075 210.852 32.939 210.582 32.939C210.312 32.939 210.046 33.0075 209.809 33.1383ZM210.398 30.8C210.491 30.842 210.581 30.8896 210.667 30.9425C210.734 30.9851 210.804 31.0231 210.876 31.0561C210.931 31.0801 210.99 31.0924 211.05 31.092C211.089 31.0932 211.128 31.0862 211.164 31.0715C211.199 31.0568 211.232 31.0347 211.259 31.0067C211.319 30.9365 211.355 30.8487 211.362 30.7563H211.88C211.856 31.0156 211.753 31.2611 211.585 31.4592C211.511 31.5356 211.422 31.5957 211.324 31.6355C211.225 31.6753 211.12 31.6939 211.014 31.6903C210.923 31.6919 210.833 31.6751 210.749 31.6408C210.653 31.5983 210.56 31.5507 210.469 31.4983C210.384 31.4508 210.317 31.4155 210.267 31.3911C210.215 31.3668 210.158 31.3545 210.101 31.3552C209.926 31.3552 209.821 31.4669 209.789 31.6903H209.278C209.377 31.0629 209.663 30.7495 210.136 30.7499C210.226 30.7479 210.316 30.7647 210.399 30.7993L210.398 30.8Z" fill="white"/>
<path d="M216.799 32.8808V34.1851H218.571V34.9554H216.799V36.3091H218.784V37.1153H215.8V32.0811H218.784V32.8796L216.799 32.8808Z" fill="white"/>
<path d="M224.7 36.449C224.564 36.6732 224.367 36.8538 224.132 36.9695C223.848 37.1082 223.534 37.1755 223.218 37.1659C222.892 37.1716 222.569 37.1098 222.268 36.9843C222.002 36.8733 221.771 36.6924 221.598 36.4605C221.429 36.2272 221.33 35.9502 221.311 35.662H222.375C222.393 35.8558 222.48 36.0366 222.619 36.1717C222.694 36.2411 222.782 36.2949 222.878 36.3298C222.973 36.3648 223.075 36.3802 223.176 36.3752C223.263 36.381 223.35 36.3693 223.433 36.3406C223.515 36.3119 223.591 36.2669 223.655 36.2083C223.71 36.1514 223.754 36.0837 223.782 36.0095C223.811 35.9352 223.824 35.8558 223.821 35.7763C223.825 35.6355 223.777 35.4981 223.686 35.3912C223.592 35.2854 223.475 35.2013 223.346 35.1447C223.209 35.0805 223.02 35.0118 222.778 34.9309C222.516 34.8466 222.26 34.743 222.013 34.6209C221.81 34.5157 221.637 34.3628 221.506 34.1754C221.357 33.9501 221.284 33.683 221.297 33.4129C221.288 33.2175 221.326 33.0229 221.407 32.845C221.488 32.6672 221.609 32.5109 221.761 32.3891C222.116 32.1252 222.55 31.9929 222.991 32.0149C223.444 31.9911 223.891 32.1273 224.256 32.4C224.41 32.5251 224.537 32.6808 224.629 32.8575C224.722 33.0342 224.777 33.228 224.791 33.427H223.715C223.692 33.2556 223.612 33.0971 223.488 32.9777C223.35 32.8554 223.169 32.7927 222.985 32.8031C222.823 32.7955 222.665 32.8476 222.538 32.9494C222.436 33.0536 222.376 33.1918 222.369 33.3377C222.362 33.4836 222.408 33.6271 222.499 33.7409C222.593 33.8426 222.706 33.9239 222.833 33.9797C223.012 34.0582 223.196 34.127 223.383 34.1857C223.649 34.2776 223.911 34.3848 224.166 34.5066C224.372 34.611 224.548 34.7655 224.68 34.956C224.831 35.1882 224.905 35.4625 224.892 35.7397C224.894 35.9893 224.827 36.2346 224.7 36.449Z" fill="white"/>
<path d="M23.8949 17.3005H34.5408C34.7967 17.302 35.0501 17.2492 35.2844 17.1456C35.5187 17.0419 35.7287 16.8898 35.9006 16.6991C36.0726 16.5084 36.2026 16.2834 36.2823 16.0388C36.3621 15.7941 36.3896 15.5353 36.3633 15.2793C35.9162 11.5423 34.2472 8.06067 31.6186 5.38179C28.9901 2.70291 25.551 0.978659 21.842 0.48007C21.5859 0.450073 21.3265 0.475108 21.0808 0.553527C20.8351 0.631946 20.6087 0.761958 20.4167 0.934957C20.2247 1.10796 20.0714 1.32 19.9669 1.55705C19.8625 1.79411 19.8093 2.05077 19.8108 2.31006L22.0692 15.4647C22.0692 15.7059 22.1164 15.9446 22.2081 16.1674C22.2999 16.3902 22.4344 16.5926 22.6039 16.7631C22.7735 16.9335 22.9747 17.0688 23.1962 17.161C23.4177 17.2532 23.6551 17.3006 23.8949 17.3005Z" fill="white"/>
<path d="M12.5546 20.2957H1.90672C1.65072 20.2942 1.39728 20.347 1.16293 20.4507C0.928584 20.5544 0.718584 20.7065 0.546627 20.8973C0.374671 21.0881 0.244618 21.3132 0.164943 21.5579C0.0852681 21.8026 0.0577609 22.0615 0.0842177 22.3176C0.53141 26.0545 2.20047 29.5359 4.82904 32.2147C7.4576 34.8934 10.8966 36.6176 14.6055 37.1161C14.8616 37.1461 15.121 37.1211 15.3667 37.0427C15.6124 36.9643 15.8388 36.8343 16.0308 36.6613C16.2228 36.4883 16.3761 36.2762 16.4806 36.0392C16.585 35.8021 16.6382 35.5454 16.6367 35.2861L14.3783 22.1315C14.3783 21.6448 14.1862 21.1781 13.8442 20.8338C13.5023 20.4896 13.0384 20.296 12.5546 20.2957Z" fill="white"/>
<path d="M17.4541 22.2289L19.7124 35.2115C19.711 35.469 19.7635 35.724 19.8665 35.9597C19.9696 36.1954 20.1209 36.4066 20.3106 36.5796C20.5002 36.7526 20.724 36.8834 20.9673 36.9636C21.2106 37.0437 21.4679 37.0714 21.7226 37.0447C25.4379 36.5948 28.8992 34.9157 31.5623 32.2713C34.2255 29.6269 35.9394 26.1672 36.4347 22.4362C36.4645 22.1787 36.4396 21.9177 36.3616 21.6705C36.2837 21.4234 36.1544 21.1957 35.9824 21.0025C35.8104 20.8094 35.5996 20.6552 35.364 20.5501C35.1283 20.4451 34.8731 20.3915 34.6154 20.3931H19.2792C18.7951 20.3931 18.3309 20.5865 17.9886 20.9308C17.6464 21.2751 17.4541 21.742 17.4541 22.2289Z" fill="white"/>
<path d="M18.9928 15.3665L16.7344 2.3838C16.7359 2.1263 16.6834 1.87136 16.5803 1.63564C16.4773 1.39991 16.326 1.18868 16.1363 1.01572C15.9467 0.842749 15.7229 0.711922 15.4796 0.631779C15.2363 0.551636 14.979 0.523972 14.7243 0.550584C11.009 1.00039 7.54758 2.67951 4.88442 5.32392C2.22126 7.96833 0.507373 11.4281 0.0122238 15.1591C-0.0175977 15.4167 0.007296 15.6777 0.0852569 15.9248C0.163218 16.172 0.29247 16.3997 0.464458 16.5928C0.636447 16.7859 0.847248 16.9402 1.08292 17.0452C1.31859 17.1503 1.57376 17.2038 1.83153 17.2022H17.1677C17.6517 17.2022 18.116 17.0088 18.4582 16.6645C18.8005 16.3203 18.9928 15.8533 18.9928 15.3665Z" fill="white"/>
</g>
</svg>
